                                _
  _____  ____ _ _ __ ___  _ __ | | ___   ___  _ __ __ _
 / _ \ \/ / _` | '_ ` _ \| '_ \| |/ _ \ / _ \| '__/ _` |
|  __/>  < (_| | | | | | | |_) | |  __/| (_) | | | (_| |
 \___/_/\_\__,_|_| |_| |_| .__/|_|\___(_)___/|_|  \__, |
                         |_|                      |___/

            ~ excellence is not an option ~
